{
  "skills": [
    "Advanced",
    "Beginner",
    "Expert",
    "Intermediate",
    "Novice"
  ],
  "qualifications": [
    "Doctorate PhD",
    "Master Degree",
    "Professional",
    "Post Graduate Diploma",
    "Bachelor Degree",
    "Diploma"
  ],
  "revised": [
    "Accounts Manager",
    "Accounts Officer 1",
    "Accounts Officer 2",
    "Admin Officer - Abuja",
    "Admin Officer 1",
    "Admin Officer 2",
    "Admin Officer 3",
    "Admin Support Staff",
    "Associate",
    "Associate Partner",
    "Deputy Manager",
    "Driver",
    "Facility Manager",
    "Finance Officer",
    "Head - Finance",
    "Head - HR, Practice Director",
    "IT Manager",
    "Librarian",
    "Litigation Assistant",
    "Office Assistants",
    "Operations Manager",
    "Partner",
    "Principal Partner",
    "Security Head",
    "Security Officer",
    "Senior Associate"
  ],
  "designations": [
    "Account Manager",
    "Admin Officer 1",
    "Admin Officer 3",
    "Admin Support Staff",
    "Assistant General Manager",
    "Assistant Manager",
    "Associate I",
    "Associate II",
    "Associate III",
    "Associate IV",
    "Associate Partner",
    "Associate",
    "Deputy Manager",
    "Director",
    "Driver I",
    "Driver II",
    "Driver III",
    "Driver IV",
    "Driver V",
    "General Manager",
    "Head - HR",
    "IT Manager",
    "Manager",
    "Office Assistant I",
    "Office Assistant II",
    "Office Assistant III",
    "Office Assistant IV",
    "Officer I",
    "Officer II",
    "Officer III",
    "Officer IV",
    "Operations Assistant",
    "Partner",
    "Practice Administrator",
    "Practice Director",
    "Principal Partner",
    "Security Officer I",
    "Security Officer II",
    "Security Officer III",
    "Senior Associate I",
    "Senior Associate II",
    "Senior Associate III",
    "Senior Associate IV",
    "Senior Driver",
    "Senior Manager",
    "Senior Officer",
    "Senior Partner",
    "Senior Security Officer",
    "CEO",
    "COO",
    "Executive Sales & Operation Assistant",
    "Research Assistant",
    "Research Analyst",
    "Programme Assistant",
    "Programme Coordinator",
    "Programme Manager",
    "Front Desk Officer",
    "Cleaner",
    "Cafeteria Assistant"
  ],
  "roles": [
    "Admin Support Staff",
    "Admin Officer 3",
    "Account Manager",
    "Admin Officer 1",
    "Operations Assistant",
    "Associate",
    "Head - HR",
    "IT Manager",
    "Assistant General Manager",
    "Assistant Manager",
    "Associate I",
    "Associate II",
    "Associate III",
    "Associate IV",
    "Associate Partner",
    "Deputy Manager",
    "Director",
    "Driver I",
    "Driver II",
    "Driver III",
    "Driver IV",
    "Driver V",
    "General Manager",
    "Manager",
    "Office Assistant I",
    "Office Assistant II",
    "Office Assistant III",
    "Office Assistant IV",
    "Officer I",
    "Officer II",
    "Officer III",
    "Partner",
    "Security Officer I",
    "Security Officer II",
    "Security Officer III",
    "Senior Associate I",
    "Senior Associate II",
    "Senior Associate III",
    "Senior Manager",
    "Senior Partner",
    "Bookstore Manager",
    "Finance Manager"
  ],
  "sCounsels": [
    "Associate Partner",
    "Senior Associate I",
    "Senior Associate II",
    "Senior Associate III",
    "Senior Associate"
  ],
  "accObj": {
    "Q": "Q - CEO",
    "O": "O - COO",
    "N": "N - Manager",
    "M": "M - Asst. Manager",
    "K": "K - Driver, Cleaner",
    "J": "J - Members"
  },
  "access": [
    "Q",
    "O",
    "N",
    "M",
    "K",
    "J"
  ],
  "status": [
    "Divorced",
    "Married",
    "Married with Children",
    "Separated",
    "Single",
    "Single with Children",
    "Unknown"
  ],
  "empStatus": [
    "Active",
    "Inactive"
  ],
  "gender": [
    "Male",
    "Female"
  ],
  "grades": [
    "First Class",
    "Second Class Upper",
    "Second Class Lower",
    "Third Class",
    "Passed",
    "Distinction",
    "Upper Credit",
    "Lower Credit"
  ],
  "relationships": [
    "Brother",
    "Child",
    "Grand Parent",
    "Parent",
    "Sister",
    "Spouse"
  ],
  "priorities": [
    "Normal",
    "Urgent"
  ],
  "supperiority": [
    "Low",
    "Medium",
    "High"
  ],
  "loginStatus": [
    "Successfull",
    "Failed"
  ],
  "levels": [
    "Level 1",
    "Level 2"
  ],
  "leaveConfig": [
    "Only Working Days",
    "All Days"
  ],
  "leaveTypes": [
    "Annual",
    "Casual",
    "Sick",
    "Parenting"
  ],
  "msgTypes": [
    "Cash",
    "Leave",
    "Normal",
    "Support",
    "Attendance",
    "Confirmation",
    "Training",
    "Query"
  ],
  "quarters": [
    "1st Quarter",
    "2nd Quarter",
    "3rd Quarter",
    "4th Quarter"
  ],
  "leads": [
    "0",
    "1 - 3",
    "4 - 6",
    "7 - 10"
  ],
  "appLevels": [
    "Exceptional",
    "Excellent",
    "Very Good",
    "Good",
    "Satisfactory"
  ],
  "assetStates": [
    "Active",
    "Retired"
  ],
  "cashRequestStates": [
    "Pre-Approval",
    "Awaiting PD's Approval",
    "Awaiting PA's Approval",
    "Approved",
    "Cash Released",
    "Disapproved",
    "Retired"
  ],
  "leaveRequestStates": [
    "Pre-Approval",
    "Approved",
    "Awaiting PD's Approval",
    "Awaiting PA's Approval",
    "Disapproved"
  ],
  "outOfficeRequestStates": [
    "Pre-Approval",
    "Approved",
    "Disapproved"
  ],
  "outOfficeTypes": [
    {
      "name": "Training",
      "assign": [
        "Counsel",
        "Non-Counsel"
      ],
      "timeBased": false
    },
    {
      "name": "Travel for Cases",
      "assign": [
        "Counsel"
      ],
      "timeBased": false,
      "listCases": true
    },
    {
      "name": "In Court",
      "assign": [
        "Counsel"
      ],
      "timeBased": true,
      "listCases": true
    },
    {
      "name": "Transactions",
      "assign": [
        "Non-Counsel"
      ],
      "timeBased": true
    },
    {
      "name": "PP's Work",
      "assign": [
        "Non-Counsel"
      ],
      "ti meBased": true
    },
    {
      "name": "Others",
      "assign": [
        "Counsel",
        "Non-Counsel"
      ],
      "timeBased": true
    }
  ],
  "practiceAreas": [
    "Advertising law",
    "Admiralty law",
    "Agency law",
    "Alcohol law",
    "Alternative dispute resolution",
    "Animal law",
    "Antitrust law (or competition law)",
    "Appellate practice",
    "Art law (or art and culture law)",
    "Aviation law",
    "Banking law",
    "Bankruptcy law",
    "Bioethics",
    "Bird law",
    "Business law (or commercial law)",
    "Business organizations law (or companies law)",
    "Civil law or common law",
    "Class action litigation/Mass tort litigation",
    "Communications law",
    "Computer law",
    "Conflict of law (or private international law)",
    "Constitutional law",
    "Construction law",
    "Consumer law",
    "Contract law",
    "Copyright law"
  ],
  "membership": {
    "Individual": 100000,
    "SMEs": 150000,
    "Institutions": 200000,
    "Large Enterprises": 250000
  },
  "membershipTypes": ["Individual", "SMEs",  "Institutions", "Large Enterprises"],
  "memberModelFields": [
    "first name",
    "last name",
    "category",
    "status",
    "date registered",
    "contact address",
    "phone",
    "email",
    "regNumber"
    
  ],
  "scgnLocations": ["Lagos", "Abuja"]
}